%YAML 1.1
%TAG !u! tag:unity3d.com,2011:
--- !u!1 &390420567206063442
GameObject:
  m_ObjectHideFlags: 0
  m_CorrespondingSourceObject: {fileID: 0}
  m_PrefabInstance: {fileID: 0}
  m_PrefabAsset: {fileID: 0}
  serializedVersion: 6
  m_Component:
  - component: {fileID: 425490312677840072}
  - component: {fileID: 276173146163212118}
  - component: {fileID: 6447308127972573542}
  m_Layer: 31
  m_Name: Layer1
  m_TagString: Untagged
  m_Icon: {fileID: 0}
  m_NavMeshLayer: 0
  m_StaticEditorFlags: 0
  m_IsActive: 1
--- !u!4 &425490312677840072
Transform:
  m_ObjectHideFlags: 0
  m_CorrespondingSourceObject: {fileID: 0}
  m_PrefabInstance: {fileID: 0}
  m_PrefabAsset: {fileID: 0}
  m_GameObject: {fileID: 390420567206063442}
  m_LocalRotation: {x: -0, y: -0, z: -0, w: 1}
  m_LocalPosition: {x: 0, y: 0, z: 0}
  m_LocalScale: {x: 1, y: 1, z: 1}
  m_Children: []
  m_Father: {fileID: 293701433667412409}
  m_RootOrder: 0
  m_LocalEulerAnglesHint: {x: 0, y: 0, z: 0}
--- !u!1839735485 &276173146163212118
Tilemap:
  m_ObjectHideFlags: 0
  m_CorrespondingSourceObject: {fileID: 0}
  m_PrefabInstance: {fileID: 0}
  m_PrefabAsset: {fileID: 0}
  m_GameObject: {fileID: 390420567206063442}
  m_Enabled: 1
  m_Tiles:
  - first: {x: -3, y: -3, z: 0}
    second:
      serializedVersion: 2
      m_TileIndex: 35
      m_TileSpriteIndex: 35
      m_TileMatrixIndex: 0
      m_TileColorIndex: 0
      m_TileObjectToInstantiateIndex: 65535
      m_AllTileFlags: 1073741825
  - first: {x: -3, y: -2, z: 0}
    second:
      serializedVersion: 2
      m_TileIndex: 28
      m_TileSpriteIndex: 28
      m_TileMatrixIndex: 0
      m_TileColorIndex: 0
      m_TileObjectToInstantiateIndex: 65535
      m_AllTileFlags: 1073741825
  - first: {x: -2, y: -2, z: 0}
    second:
      serializedVersion: 2
      m_TileIndex: 29
      m_TileSpriteIndex: 29
      m_TileMatrixIndex: 0
      m_TileColorIndex: 0
      m_TileObjectToInstantiateIndex: 65535
      m_AllTileFlags: 1073741825
  - first: {x: -1, y: -2, z: 0}
    second:
      serializedVersion: 2
      m_TileIndex: 30
      m_TileSpriteIndex: 30
      m_TileMatrixIndex: 0
      m_TileColorIndex: 0
      m_TileObjectToInstantiateIndex: 65535
      m_AllTileFlags: 1073741825
  - first: {x: 0, y: -2, z: 0}
    second:
      serializedVersion: 2
      m_TileIndex: 31
      m_TileSpriteIndex: 31
      m_TileMatrixIndex: 0
      m_TileColorIndex: 0
      m_TileObjectToInstantiateIndex: 65535
      m_AllTileFlags: 1073741825
  - first: {x: 1, y: -2, z: 0}
    second:
      serializedVersion: 2
      m_TileIndex: 32
      m_TileSpriteIndex: 32
      m_TileMatrixIndex: 0
      m_TileColorIndex: 0
      m_TileObjectToInstantiateIndex: 65535
      m_AllTileFlags: 1073741825
  - first: {x: 2, y: -2, z: 0}
    second:
      serializedVersion: 2
      m_TileIndex: 33
      m_TileSpriteIndex: 33
      m_TileMatrixIndex: 0
      m_TileColorIndex: 0
      m_TileObjectToInstantiateIndex: 65535
      m_AllTileFlags: 1073741825
  - first: {x: 3, y: -2, z: 0}
    second:
      serializedVersion: 2
      m_TileIndex: 34
      m_TileSpriteIndex: 34
      m_TileMatrixIndex: 0
      m_TileColorIndex: 0
      m_TileObjectToInstantiateIndex: 65535
      m_AllTileFlags: 1073741825
  - first: {x: -3, y: -1, z: 0}
    second:
      serializedVersion: 2
      m_TileIndex: 21
      m_TileSpriteIndex: 21
      m_TileMatrixIndex: 0
      m_TileColorIndex: 0
      m_TileObjectToInstantiateIndex: 65535
      m_AllTileFlags: 1073741825
  - first: {x: -2, y: -1, z: 0}
    second:
      serializedVersion: 2
      m_TileIndex: 22
      m_TileSpriteIndex: 22
      m_TileMatrixIndex: 0
      m_TileColorIndex: 0
      m_TileObjectToInstantiateIndex: 65535
      m_AllTileFlags: 1073741825
  - first: {x: -1, y: -1, z: 0}
    second:
      serializedVersion: 2
      m_TileIndex: 23
      m_TileSpriteIndex: 23
      m_TileMatrixIndex: 0
      m_TileColorIndex: 0
      m_TileObjectToInstantiateIndex: 65535
      m_AllTileFlags: 1073741825
  - first: {x: 0, y: -1, z: 0}
    second:
      serializedVersion: 2
      m_TileIndex: 24
      m_TileSpriteIndex: 24
      m_TileMatrixIndex: 0
      m_TileColorIndex: 0
      m_TileObjectToInstantiateIndex: 65535
      m_AllTileFlags: 1073741825
  - first: {x: 1, y: -1, z: 0}
    second:
      serializedVersion: 2
      m_TileIndex: 25
      m_TileSpriteIndex: 25
      m_TileMatrixIndex: 0
      m_TileColorIndex: 0
      m_TileObjectToInstantiateIndex: 65535
      m_AllTileFlags: 1073741825
  - first: {x: 2, y: -1, z: 0}
    second:
      serializedVersion: 2
      m_TileIndex: 26
      m_TileSpriteIndex: 26
      m_TileMatrixIndex: 0
      m_TileColorIndex: 0
      m_TileObjectToInstantiateIndex: 65535
      m_AllTileFlags: 1073741825
  - first: {x: 3, y: -1, z: 0}
    second:
      serializedVersion: 2
      m_TileIndex: 27
      m_TileSpriteIndex: 27
      m_TileMatrixIndex: 0
      m_TileColorIndex: 0
      m_TileObjectToInstantiateIndex: 65535
      m_AllTileFlags: 1073741825
  - first: {x: -3, y: 0, z: 0}
    second:
      serializedVersion: 2
      m_TileIndex: 14
      m_TileSpriteIndex: 14
      m_TileMatrixIndex: 0
      m_TileColorIndex: 0
      m_TileObjectToInstantiateIndex: 65535
      m_AllTileFlags: 1073741825
  - first: {x: -2, y: 0, z: 0}
    second:
      serializedVersion: 2
      m_TileIndex: 15
      m_TileSpriteIndex: 15
      m_TileMatrixIndex: 0
      m_TileColorIndex: 0
      m_TileObjectToInstantiateIndex: 65535
      m_AllTileFlags: 1073741825
  - first: {x: -1, y: 0, z: 0}
    second:
      serializedVersion: 2
      m_TileIndex: 16
      m_TileSpriteIndex: 16
      m_TileMatrixIndex: 0
      m_TileColorIndex: 0
      m_TileObjectToInstantiateIndex: 65535
      m_AllTileFlags: 1073741825
  - first: {x: 0, y: 0, z: 0}
    second:
      serializedVersion: 2
      m_TileIndex: 17
      m_TileSpriteIndex: 17
      m_TileMatrixIndex: 0
      m_TileColorIndex: 0
      m_TileObjectToInstantiateIndex: 65535
      m_AllTileFlags: 1073741825
  - first: {x: 1, y: 0, z: 0}
    second:
      serializedVersion: 2
      m_TileIndex: 18
      m_TileSpriteIndex: 18
      m_TileMatrixIndex: 0
      m_TileColorIndex: 0
      m_TileObjectToInstantiateIndex: 65535
      m_AllTileFlags: 1073741825
  - first: {x: 2, y: 0, z: 0}
    second:
      serializedVersion: 2
      m_TileIndex: 19
      m_TileSpriteIndex: 19
      m_TileMatrixIndex: 0
      m_TileColorIndex: 0
      m_TileObjectToInstantiateIndex: 65535
      m_AllTileFlags: 1073741825
  - first: {x: 3, y: 0, z: 0}
    second:
      serializedVersion: 2
      m_TileIndex: 20
      m_TileSpriteIndex: 20
      m_TileMatrixIndex: 0
      m_TileColorIndex: 0
      m_TileObjectToInstantiateIndex: 65535
      m_AllTileFlags: 1073741825
  - first: {x: -3, y: 1, z: 0}
    second:
      serializedVersion: 2
      m_TileIndex: 7
      m_TileSpriteIndex: 7
      m_TileMatrixIndex: 0
      m_TileColorIndex: 0
      m_TileObjectToInstantiateIndex: 65535
      m_AllTileFlags: 1073741825
  - first: {x: -2, y: 1, z: 0}
    second:
      serializedVersion: 2
      m_TileIndex: 8
      m_TileSpriteIndex: 8
      m_TileMatrixIndex: 0
      m_TileColorIndex: 0
      m_TileObjectToInstantiateIndex: 65535
      m_AllTileFlags: 1073741825
  - first: {x: -1, y: 1, z: 0}
    second:
      serializedVersion: 2
      m_TileIndex: 9
      m_TileSpriteIndex: 9
      m_TileMatrixIndex: 0
      m_TileColorIndex: 0
      m_TileObjectToInstantiateIndex: 65535
      m_AllTileFlags: 1073741825
  - first: {x: 0, y: 1, z: 0}
    second:
      serializedVersion: 2
      m_TileIndex: 10
      m_TileSpriteIndex: 10
      m_TileMatrixIndex: 0
      m_TileColorIndex: 0
      m_TileObjectToInstantiateIndex: 65535
      m_AllTileFlags: 1073741825
  - first: {x: 1, y: 1, z: 0}
    second:
      serializedVersion: 2
      m_TileIndex: 11
      m_TileSpriteIndex: 11
      m_TileMatrixIndex: 0
      m_TileColorIndex: 0
      m_TileObjectToInstantiateIndex: 65535
      m_AllTileFlags: 1073741825
  - first: {x: 2, y: 1, z: 0}
    second:
      serializedVersion: 2
      m_TileIndex: 12
      m_TileSpriteIndex: 12
      m_TileMatrixIndex: 0
      m_TileColorIndex: 0
      m_TileObjectToInstantiateIndex: 65535
      m_AllTileFlags: 1073741825
  - first: {x: 3, y: 1, z: 0}
    second:
      serializedVersion: 2
      m_TileIndex: 13
      m_TileSpriteIndex: 13
      m_TileMatrixIndex: 0
      m_TileColorIndex: 0
      m_TileObjectToInstantiateIndex: 65535
      m_AllTileFlags: 1073741825
  - first: {x: -3, y: 2, z: 0}
    second:
      serializedVersion: 2
      m_TileIndex: 0
      m_TileSpriteIndex: 0
      m_TileMatrixIndex: 0
      m_TileColorIndex: 0
      m_TileObjectToInstantiateIndex: 65535
      m_AllTileFlags: 1073741825
  - first: {x: -2, y: 2, z: 0}
    second:
      serializedVersion: 2
      m_TileIndex: 1
      m_TileSpriteIndex: 1
      m_TileMatrixIndex: 0
      m_TileColorIndex: 0
      m_TileObjectToInstantiateIndex: 65535
      m_AllTileFlags: 1073741825
  - first: {x: -1, y: 2, z: 0}
    second:
      serializedVersion: 2
      m_TileIndex: 2
      m_TileSpriteIndex: 2
      m_TileMatrixIndex: 0
      m_TileColorIndex: 0
      m_TileObjectToInstantiateIndex: 65535
      m_AllTileFlags: 1073741825
  - first: {x: 0, y: 2, z: 0}
    second:
      serializedVersion: 2
      m_TileIndex: 3
      m_TileSpriteIndex: 3
      m_TileMatrixIndex: 0
      m_TileColorIndex: 0
      m_TileObjectToInstantiateIndex: 65535
      m_AllTileFlags: 1073741825
  - first: {x: 1, y: 2, z: 0}
    second:
      serializedVersion: 2
      m_TileIndex: 4
      m_TileSpriteIndex: 4
      m_TileMatrixIndex: 0
      m_TileColorIndex: 0
      m_TileObjectToInstantiateIndex: 65535
      m_AllTileFlags: 1073741825
  - first: {x: 2, y: 2, z: 0}
    second:
      serializedVersion: 2
      m_TileIndex: 5
      m_TileSpriteIndex: 5
      m_TileMatrixIndex: 0
      m_TileColorIndex: 0
      m_TileObjectToInstantiateIndex: 65535
      m_AllTileFlags: 1073741825
  - first: {x: 3, y: 2, z: 0}
    second:
      serializedVersion: 2
      m_TileIndex: 6
      m_TileSpriteIndex: 6
      m_TileMatrixIndex: 0
      m_TileColorIndex: 0
      m_TileObjectToInstantiateIndex: 65535
      m_AllTileFlags: 1073741825
  m_AnimatedTiles: {}
  m_TileAssetArray:
  - m_RefCount: 1
    m_Data: {fileID: 11400000, guid: ca19b5e92d68d124490b7ad18115a730, type: 2}
  - m_RefCount: 1
    m_Data: {fileID: 11400000, guid: 1b94acc04c2693d4fb7a5c88778e3a4c, type: 2}
  - m_RefCount: 1
    m_Data: {fileID: 11400000, guid: 874f23d789d1bec43b975d07913b36b4, type: 2}
  - m_RefCount: 1
    m_Data: {fileID: 11400000, guid: dfd1c5f752cead64dbb08e071e6a72c8, type: 2}
  - m_RefCount: 1
    m_Data: {fileID: 11400000, guid: cb6fdc44cc0297a489cd1096c86df9b2, type: 2}
  - m_RefCount: 1
    m_Data: {fileID: 11400000, guid: c99397faf1e19d24cbd36edcac686e19, type: 2}
  - m_RefCount: 1
    m_Data: {fileID: 11400000, guid: 2e6f1452ca6af6542918fef7e321d107, type: 2}
  - m_RefCount: 1
    m_Data: {fileID: 11400000, guid: 714b92a60e19d7046aed8d2e7c00af59, type: 2}
  - m_RefCount: 1
    m_Data: {fileID: 11400000, guid: 85506cc960ecc8d45a7678bf538d7650, type: 2}
  - m_RefCount: 1
    m_Data: {fileID: 11400000, guid: 2608e6d3faa0f4a4ca2e0db3b6938a47, type: 2}
  - m_RefCount: 1
    m_Data: {fileID: 11400000, guid: 702daf85453df0041b46446dbc062073, type: 2}
  - m_RefCount: 1
    m_Data: {fileID: 11400000, guid: 8309282402042be4e817fb9408cf6230, type: 2}
  - m_RefCount: 1
    m_Data: {fileID: 11400000, guid: 2075041baf20ec04ca587228852237b9, type: 2}
  - m_RefCount: 1
    m_Data: {fileID: 11400000, guid: dc1f05688cfec1e4b85a4791c687e41c, type: 2}
  - m_RefCount: 1
    m_Data: {fileID: 11400000, guid: b2f7979196fb9054d887991f5fb800d8, type: 2}
  - m_RefCount: 1
    m_Data: {fileID: 11400000, guid: d3c9e6727ce77ca4491c900a206a3db3, type: 2}
  - m_RefCount: 1
    m_Data: {fileID: 11400000, guid: afe1869240d26c647a96c880278eacff, type: 2}
  - m_RefCount: 1
    m_Data: {fileID: 11400000, guid: d8727e5a07784994f8173c923a57c8cf, type: 2}
  - m_RefCount: 1
    m_Data: {fileID: 11400000, guid: 19f156fc4f3ecb0449f579a8f8d09311, type: 2}
  - m_RefCount: 1
    m_Data: {fileID: 11400000, guid: 221b965b32a49f84588de91f4dc1a1a6, type: 2}
  - m_RefCount: 1
    m_Data: {fileID: 11400000, guid: b7302b6153df5ee459f2afab4d4f6ea1, type: 2}
  - m_RefCount: 1
    m_Data: {fileID: 11400000, guid: d1643107570247b49adaba81773e6c4a, type: 2}
  - m_RefCount: 1
    m_Data: {fileID: 11400000, guid: f2bc28aaf30559b44af59a1cadd39ce5, type: 2}
  - m_RefCount: 1
    m_Data: {fileID: 11400000, guid: df4100f6f44c6c241a41587f11bc956f, type: 2}
  - m_RefCount: 1
    m_Data: {fileID: 11400000, guid: 3aa0cd9eb270f7b4c9dcf00734684bf2, type: 2}
  - m_RefCount: 1
    m_Data: {fileID: 11400000, guid: ef75aaf2c95a4a74e8c472f6b06f3482, type: 2}
  - m_RefCount: 1
    m_Data: {fileID: 11400000, guid: 8d5ac7a180ba8ec45bd0daa71d4b68d6, type: 2}
  - m_RefCount: 1
    m_Data: {fileID: 11400000, guid: 9452648e62e26da4483df034f65e4306, type: 2}
  - m_RefCount: 1
    m_Data: {fileID: 11400000, guid: 982cd74b78deff8429f18d55af65e94c, type: 2}
  - m_RefCount: 1
    m_Data: {fileID: 11400000, guid: ee564aa5b8776a6459e424a6d7c17c1e, type: 2}
  - m_RefCount: 1
    m_Data: {fileID: 11400000, guid: 9b7a91402f1aaaa44a609bf164c5f158, type: 2}
  - m_RefCount: 1
    m_Data: {fileID: 11400000, guid: 804a0c5f88962e34987f9922872687e8, type: 2}
  - m_RefCount: 1
    m_Data: {fileID: 11400000, guid: 9a22342759cdfa34ea10da61ae9757b7, type: 2}
  - m_RefCount: 1
    m_Data: {fileID: 11400000, guid: 9bf990dea7bc4b249a531109f8cba33e, type: 2}
  - m_RefCount: 1
    m_Data: {fileID: 11400000, guid: 80e3131ba1e864e41a166b871abaeaf0, type: 2}
  - m_RefCount: 1
    m_Data: {fileID: 11400000, guid: 4cdbcc82a95105f448ba07c3cac7f907, type: 2}
  m_TileSpriteArray:
  - m_RefCount: 1
    m_Data: {fileID: 21300000, guid: b8e93e7ab6db5ed4f923e1a5064fda91, type: 3}
  - m_RefCount: 1
    m_Data: {fileID: 21300000, guid: d1fa9a8f74fa8934c95f4a3d0b4cd5e3, type: 3}
  - m_RefCount: 1
    m_Data: {fileID: 21300000, guid: 6f930db0cdc4d004a954101a1768a3f7, type: 3}
  - m_RefCount: 1
    m_Data: {fileID: 21300000, guid: ebbc3eeab4216824ea1b9854f8864973, type: 3}
  - m_RefCount: 1
    m_Data: {fileID: 21300000, guid: 224c49ab22322c5499554eca0b30c0e4, type: 3}
  - m_RefCount: 1
    m_Data: {fileID: 21300000, guid: e24edbdee14dc5d4b8919337311d776e, type: 3}
  - m_RefCount: 1
    m_Data: {fileID: 21300000, guid: e9470f82bfdacf946b8ef9172aa0d4dd, type: 3}
  - m_RefCount: 1
    m_Data: {fileID: 21300000, guid: a871bf0d7f92b7c41a3461cfc0339cb7, type: 3}
  - m_RefCount: 1
    m_Data: {fileID: 21300000, guid: 2c2985275bf4784408f0c2fa30c9edfb, type: 3}
  - m_RefCount: 1
    m_Data: {fileID: 21300000, guid: 8219dd4dc1e7326419cb9d4639a5ee61, type: 3}
  - m_RefCount: 1
    m_Data: {fileID: 21300000, guid: 0f588aa0a40ad6b4e87a1e0c71aaffed, type: 3}
  - m_RefCount: 1
    m_Data: {fileID: 21300000, guid: bb91b69ca15b4c24f83bcef30c315b79, type: 3}
  - m_RefCount: 1
    m_Data: {fileID: 21300000, guid: 2bf0c9322a6549843a96f393447f5cc1, type: 3}
  - m_RefCount: 1
    m_Data: {fileID: 21300000, guid: f5fd520d8fe778043889382f98246320, type: 3}
  - m_RefCount: 1
    m_Data: {fileID: 21300000, guid: 654c1fa1bca7a7443ab69a41a5ff0b55, type: 3}
  - m_RefCount: 1
    m_Data: {fileID: 21300000, guid: ab57c88a4d27f4c4882be810154d549c, type: 3}
  - m_RefCount: 1
    m_Data: {fileID: 21300000, guid: 379ac90df9587c54294201039269f6c3, type: 3}
  - m_RefCount: 1
    m_Data: {fileID: 21300000, guid: 3ae364156678fac46adee4c049a4518c, type: 3}
  - m_RefCount: 1
    m_Data: {fileID: 21300000, guid: 7407583cd5f487e4ba6f0baa41d10b53, type: 3}
  - m_RefCount: 1
    m_Data: {fileID: 21300000, guid: 7cd9f88c06b19534b9c281df96282e65, type: 3}
  - m_RefCount: 1
    m_Data: {fileID: 21300000, guid: 3574f4be55f64a54f8a180b6fc0fe922, type: 3}
  - m_RefCount: 1
    m_Data: {fileID: 21300000, guid: 532680eede5d6104a9b05d278030ce2d, type: 3}
  - m_RefCount: 1
    m_Data: {fileID: 21300000, guid: 78e348b73cb466744b1dff13f2ae0d89, type: 3}
  - m_RefCount: 1
    m_Data: {fileID: 21300000, guid: d8f4c20898be3e34996b3714cfdcaadd, type: 3}
  - m_RefCount: 1
    m_Data: {fileID: 21300000, guid: 2caaf5d55715e89428814f0cabb54714, type: 3}
  - m_RefCount: 1
    m_Data: {fileID: 21300000, guid: 2849ea652d60adb44a8f63ca267982fd, type: 3}
  - m_RefCount: 1
    m_Data: {fileID: 21300000, guid: 726691b7223d8c74b8b0bbfc15332e0f, type: 3}
  - m_RefCount: 1
    m_Data: {fileID: 21300000, guid: 247db79be7ee05040a5cacb3f867d360, type: 3}
  - m_RefCount: 1
    m_Data: {fileID: 21300000, guid: 1cf61479c86a7f640b5ab0f39c9385a0, type: 3}
  - m_RefCount: 1
    m_Data: {fileID: 21300000, guid: 68b97d82f651f5449a8ae5899979b7f9, type: 3}
  - m_RefCount: 1
    m_Data: {fileID: 21300000, guid: 4161321b101a14d4f9d68b89f75d7077, type: 3}
  - m_RefCount: 1
    m_Data: {fileID: 21300000, guid: f3cf95de105fd7245a04a6f9ae26133c, type: 3}
  - m_RefCount: 1
    m_Data: {fileID: 21300000, guid: a4df82b9d93a67643a87c28da8961727, type: 3}
  - m_RefCount: 1
    m_Data: {fileID: 21300000, guid: 2a170a7732d81cf40afa490d2615cc6e, type: 3}
  - m_RefCount: 1
    m_Data: {fileID: 21300000, guid: ae57c7261f254f64499b2921961f13e1, type: 3}
  - m_RefCount: 1
    m_Data: {fileID: 21300000, guid: f5479b35982c0dd49a85c803687a138e, type: 3}
  m_TileMatrixArray:
  - m_RefCount: 36
    m_Data:
      e00: 1
      e01: 0
      e02: 0
      e03: 0
      e10: 0
      e11: 1
      e12: 0
      e13: 0
      e20: 0
      e21: 0
      e22: 1
      e23: 0
      e30: 0
      e31: 0
      e32: 0
      e33: 1
  m_TileColorArray:
  - m_RefCount: 36
    m_Data: {r: 1, g: 1, b: 1, a: 1}
  m_TileObjectToInstantiateArray: []
  m_AnimationFrameRate: 1
  m_Color: {r: 1, g: 1, b: 1, a: 1}
  m_Origin: {x: -3, y: -3, z: 0}
  m_Size: {x: 7, y: 6, z: 1}
  m_TileAnchor: {x: 0.5, y: 0.5, z: 0}
  m_TileOrientation: 0
  m_TileOrientationMatrix:
    e00: 1
    e01: 0
    e02: 0
    e03: 0
    e10: 0
    e11: 1
    e12: 0
    e13: 0
    e20: 0
    e21: 0
    e22: 1
    e23: 0
    e30: 0
    e31: 0
    e32: 0
    e33: 1
--- !u!483693784 &6447308127972573542
TilemapRenderer:
  m_ObjectHideFlags: 0
  m_CorrespondingSourceObject: {fileID: 0}
  m_PrefabInstance: {fileID: 0}
  m_PrefabAsset: {fileID: 0}
  m_GameObject: {fileID: 390420567206063442}
  m_Enabled: 0
  m_CastShadows: 0
  m_ReceiveShadows: 0
  m_DynamicOccludee: 0
  m_MotionVectors: 1
  m_LightProbeUsage: 0
  m_ReflectionProbeUsage: 0
  m_RayTracingMode: 0
  m_RenderingLayerMask: 1
  m_RendererPriority: 0
  m_Materials:
  - {fileID: 10754, guid: 0000000000000000f000000000000000, type: 0}
  m_StaticBatchInfo:
    firstSubMesh: 0
    subMeshCount: 0
  m_StaticBatchRoot: {fileID: 0}
  m_ProbeAnchor: {fileID: 0}
  m_LightProbeVolumeOverride: {fileID: 0}
  m_ScaleInLightmap: 1
  m_ReceiveGI: 1
  m_PreserveUVs: 0
  m_IgnoreNormalsForChartDetection: 0
  m_ImportantGI: 0
  m_StitchLightmapSeams: 1
  m_SelectedEditorRenderState: 0
  m_MinimumChartSize: 4
  m_AutoUVMaxDistance: 0.5
  m_AutoUVMaxAngle: 89
  m_LightmapParameters: {fileID: 0}
  m_SortingLayerID: 0
  m_SortingLayer: 0
  m_SortingOrder: 0
  m_ChunkSize: {x: 32, y: 32, z: 32}
  m_ChunkCullingBounds: {x: 0, y: 0, z: 0}
  m_MaxChunkCount: 16
  m_MaxFrameAge: 16
  m_SortOrder: 0
  m_Mode: 0
  m_DetectChunkCullingBounds: 0
  m_MaskInteraction: 0
--- !u!1 &2066107335644570514
GameObject:
  m_ObjectHideFlags: 0
  m_CorrespondingSourceObject: {fileID: 0}
  m_PrefabInstance: {fileID: 0}
  m_PrefabAsset: {fileID: 0}
  serializedVersion: 6
  m_Component:
  - component: {fileID: 293701433667412409}
  - component: {fileID: 3016061294954952094}
  m_Layer: 31
  m_Name: Srping
  m_TagString: Untagged
  m_Icon: {fileID: 0}
  m_NavMeshLayer: 0
  m_StaticEditorFlags: 0
  m_IsActive: 1
--- !u!4 &293701433667412409
Transform:
  m_ObjectHideFlags: 0
  m_CorrespondingSourceObject: {fileID: 0}
  m_PrefabInstance: {fileID: 0}
  m_PrefabAsset: {fileID: 0}
  m_GameObject: {fileID: 2066107335644570514}
  m_LocalRotation: {x: 0, y: 0, z: 0, w: 1}
  m_LocalPosition: {x: 0, y: 0, z: 0}
  m_LocalScale: {x: 1, y: 1, z: 1}
  m_Children:
  - {fileID: 425490312677840072}
  m_Father: {fileID: 0}
  m_RootOrder: 0
  m_LocalEulerAnglesHint: {x: 0, y: 0, z: 0}
--- !u!156049354 &3016061294954952094
Grid:
  m_ObjectHideFlags: 0
  m_CorrespondingSourceObject: {fileID: 0}
  m_PrefabInstance: {fileID: 0}
  m_PrefabAsset: {fileID: 0}
  m_GameObject: {fileID: 2066107335644570514}
  m_Enabled: 1
  m_CellSize: {x: 1, y: 1, z: 0}
  m_CellGap: {x: 0, y: 0, z: 0}
  m_CellLayout: 0
  m_CellSwizzle: 0
--- !u!114 &-2747807809314104357
MonoBehaviour:
  m_ObjectHideFlags: 0
  m_CorrespondingSourceObject: {fileID: 0}
  m_PrefabInstance: {fileID: 0}
  m_PrefabAsset: {fileID: 0}
  m_GameObject: {fileID: 0}
  m_Enabled: 1
  m_EditorHideFlags: 0
  m_Script: {fileID: 12395, guid: 0000000000000000e000000000000000, type: 0}
  m_Name: Palette Settings
  m_EditorClassIdentifier: 
  cellSizing: 0
