%YAML 1.1
%TAG !u! tag:unity3d.com,2011:
--- !u!1045 &1
EditorBuildSettings:
  m_ObjectHideFlags: 0
  serializedVersion: 2
  m_Scenes:
  - enabled: 1
    path: Assets/Scenes/Menu.unity
    guid: 2cda990e2423bbf4892e6590ba056729
  - enabled: 1
    path: Assets/Scenes/Selection Niveau.unity
    guid: 59dc3e80ccda2e54d9be566d4793f841
  - enabled: 1
    path: Assets/Scenes/Level 1.unity
    guid: 39c26645c3449684db677a66f5a4557f
  m_configObjects: {}
